HEEEEEEELP
================================================================================


TODO
================================================================================

* :% on avance..
* malloc check new_instruct_arg.c 
* rm printf de debug ou printf -> ft_printf
* label inexistant
